Verilog/Codes/output.vcd
$date
	Mon Nov  6 19:38:33 2023
$end
$version
	Icarus Verilog
$end
$timescale
	1s
$end
$scope module testbench $end
$var reg 1 ! S1 $end
$upscope $end
$scope module testbench $end
$var reg 1 " S0 $end
$upscope $end
$scope module testbench $end
$var reg 4 # a [3:0] $end
$upscope $end
$scope module testbench $end
$var reg 4 $ b [3:0] $end
$upscope $end
$scope module testbench $end
$var wire 5 % Y [4:0] $end
$upscope $end
$enddefinitions $end
#5
$dumpvars
b11 %
b1 $
b10 #
0"
0!
$end
#10
b0 %
b0 $
b0 #
#15
b11 %
b11 $
#20
b1111 %
b1111 $
#25
b1 %
b0 $
b1 #
#30
b1101 %
b1100 $
#35
b1110 %
b1101 $
#40
b10000 %
b1111 $
#45
b10 %
b0 $
b10 #
#50
b11 %
b1 $
#55
b100 %
b10 $
#60
b110 %
b100 $
#65
b111 %
b101 $
#70
b10000 %
b1110 $
#75
b10001 %
b1111 $
#80
b11 %
b0 $
b11 #
#85
b100 %
b1 $
#90
b101 %
b10 $
#95
b110 %
b11 $
#100
b111 %
b100 $
#105
b1001 %
b110 $
#110
b1010 %
b111 $
#115
b10001 %
b1110 $
#120
b10010 %
b1111 $
#125
b100 %
b0 $
b100 #
#130
b101 %
b1 $
#135
b1001 %
b101 $
#140
b1011 %
b111 $
#145
b1101 %
b1001 $
#150
b1110 %
b1010 $
#155
b10000 %
b1100 $
#160
b10010 %
b1110 $
#165
b1010 %
b101 $
b101 #
#170
b1011 %
b110 $
#175
b1100 %
b111 $
#180
b1110 %
b1001 $
#185
b1111 %
b1010 $
#190
b10010 %
b1101 $
#195
b10011 %
b1110 $
#200
b10100 %
b1111 $
#205
b110 %
b0 $
b110 #
#210
b10011 %
b1101 $
#215
b10100 %
b1110 $
#220
b10101 %
b1111 $
#225
b111 %
b0 $
b111 #
#230
b1001 %
b10 $
#235
b1010 %
b11 $
#240
b1110 %
b111 $
#245
b1111 %
b1000 $
#250
b10100 %
b1101 $
#255
b10101 %
b1110 $
#260
b1000 %
b0 $
b1000 #
#265
b1001 %
b1 $
#270
b1010 %
b10 $
#275
b10010 %
b1010 $
#280
b10100 %
b1100 $
#285
b10101 %
b1101 $
#290
b10111 %
b1111 $
#295
b1110 %
b0 $
b1110 #
#300
b10001 %
b11 $
#305
b10010 %
b100 $
#310
b10111 %
b1001 $
#315
b11000 %
b1010 $
#320
b11001 %
b1011 $
#325
b11100 %
b1110 $
#330
b11101 %
b1111 $
#335
b1101 %
b0 $
b1101 #
#340
b1110 %
b1 $
#345
b1111 %
b10 $
#350
b10011 %
b110 $
#355
b10100 %
b111 $
#360
b10111 %
b1010 $
#365
b11000 %
b1011 $
#370
b11001 %
b1100 $
#375
b11100 %
b1111 $
#380
b1111 %
b0 $
b1111 #
#385
b10000 %
b1 $
#390
b10001 %
b10 $
#395
b10101 %
b110 $
#400
b10110 %
b111 $
#405
b10111 %
b1000 $
#410
b11000 %
b1001 $
#415
b11110 %
b1111 $
